design_project/new_folder/cme435_project/bin/dump.vcd
$date
	Tue Dec 10 19:15:43 2019
$end
$version
	QuestaSim Version 10.3a
$end
$timescale
	1ns
$end

$scope module tbench_top $end
$var reg 1 ! clk $end
$var reg 1 " reset $end

$scope module t1 $end
$upscope $end

$scope module dut $end

$scope module dut $end
$var wire 1 # data_in [31] $end
$var wire 1 $ data_in [30] $end
$var wire 1 % data_in [29] $end
$var wire 1 & data_in [28] $end
$var wire 1 ' data_in [27] $end
$var wire 1 ( data_in [26] $end
$var wire 1 ) data_in [25] $end
$var wire 1 * data_in [24] $end
$var wire 1 + data_in [23] $end
$var wire 1 , data_in [22] $end
$var wire 1 - data_in [21] $end
$var wire 1 . data_in [20] $end
$var wire 1 / data_in [19] $end
$var wire 1 0 data_in [18] $end
$var wire 1 1 data_in [17] $end
$var wire 1 2 data_in [16] $end
$var wire 1 3 data_in [15] $end
$var wire 1 4 data_in [14] $end
$var wire 1 5 data_in [13] $end
$var wire 1 6 data_in [12] $end
$var wire 1 7 data_in [11] $end
$var wire 1 8 data_in [10] $end
$var wire 1 9 data_in [9] $end
$var wire 1 : data_in [8] $end
$var wire 1 ; data_in [7] $end
$var wire 1 < data_in [6] $end
$var wire 1 = data_in [5] $end
$var wire 1 > data_in [4] $end
$var wire 1 ? data_in [3] $end
$var wire 1 @ data_in [2] $end
$var wire 1 A data_in [1] $end
$var wire 1 B data_in [0] $end
$var wire 1 C addr_in [31] $end
$var wire 1 D addr_in [30] $end
$var wire 1 E addr_in [29] $end
$var wire 1 F addr_in [28] $end
$var wire 1 G addr_in [27] $end
$var wire 1 H addr_in [26] $end
$var wire 1 I addr_in [25] $end
$var wire 1 J addr_in [24] $end
$var wire 1 K addr_in [23] $end
$var wire 1 L addr_in [22] $end
$var wire 1 M addr_in [21] $end
$var wire 1 N addr_in [20] $end
$var wire 1 O addr_in [19] $end
$var wire 1 P addr_in [18] $end
$var wire 1 Q addr_in [17] $end
$var wire 1 R addr_in [16] $end
$var wire 1 S addr_in [15] $end
$var wire 1 T addr_in [14] $end
$var wire 1 U addr_in [13] $end
$var wire 1 V addr_in [12] $end
$var wire 1 W addr_in [11] $end
$var wire 1 X addr_in [10] $end
$var wire 1 Y addr_in [9] $end
$var wire 1 Z addr_in [8] $end
$var wire 1 [ addr_in [7] $end
$var wire 1 \ addr_in [6] $end
$var wire 1 ] addr_in [5] $end
$var wire 1 ^ addr_in [4] $end
$var wire 1 _ addr_in [3] $end
$var wire 1 ` addr_in [2] $end
$var wire 1 a addr_in [1] $end
$var wire 1 b addr_in [0] $end
$var reg 4 c rcv_rdy [3:0] $end
$var wire 1 d valid_in [3] $end
$var wire 1 e valid_in [2] $end
$var wire 1 f valid_in [1] $end
$var wire 1 g valid_in [0] $end
$var reg 32 h data_out [31:0] $end
$var reg 32 i addr_out [31:0] $end
$var wire 1 j data_rd [3] $end
$var wire 1 k data_rd [2] $end
$var wire 1 l data_rd [1] $end
$var wire 1 m data_rd [0] $end
$var reg 4 n valid_out [3:0] $end
$var wire 1 o reset $end
$var wire 1 p clk $end
$upscope $end

$scope module u_dut_assertion $end

$scope begin genblk2[3] $end
$var parameter 32 q i $end

$scope begin a_addr_in $end
$upscope $end

$scope begin c_addr_in $end
$upscope $end
$upscope $end

$scope begin genblk2[2] $end
$var parameter 32 r i $end

$scope begin a_addr_in $end
$upscope $end

$scope begin c_addr_in $end
$upscope $end
$upscope $end

$scope begin genblk2[1] $end
$var parameter 32 s i $end

$scope begin a_addr_in $end
$upscope $end

$scope begin c_addr_in $end
$upscope $end
$upscope $end

$scope begin genblk2[0] $end
$var parameter 32 t i $end

$scope begin a_addr_in $end
$upscope $end

$scope begin c_addr_in $end
$upscope $end
$upscope $end

$scope begin genblk1[3] $end
$var parameter 32 u i $end

$scope begin a_data_in $end
$upscope $end

$scope begin c_data_in $end
$upscope $end
$upscope $end

$scope begin genblk1[2] $end
$var parameter 32 v i $end

$scope begin a_data_in $end
$upscope $end

$scope begin c_data_in $end
$upscope $end
$upscope $end

$scope begin genblk1[1] $end
$var parameter 32 w i $end

$scope begin a_data_in $end
$upscope $end

$scope begin c_data_in $end
$upscope $end
$upscope $end

$scope begin genblk1[0] $end
$var parameter 32 x i $end

$scope begin a_data_in $end
$upscope $end

$scope begin c_data_in $end
$upscope $end
$upscope $end

$scope begin a_reset $end
$upscope $end

$scope begin c_reset $end
$upscope $end

$scope begin <genblk#211587267#14#7> $end
$upscope $end

$scope begin <genblk#211587267#31#7> $end
$upscope $end
$upscope $end
$upscope $end
$upscope $end

$scope begin phase9_tbench_top_sv_unit $end
$upscope $end

$scope begin std $end
$upscope $end

$scope begin phase9_testbench_sanity_sv_unit $end
$upscope $end
$enddefinitions $end
#0
$dumpvars
0!
1"
b1111 c
bz h
bz i
b0 n
b0 x
b1 w
b10 v
b11 u
b0 t
b1 s
b10 r
b11 q
1o
0p
0B
0A
0@
0?
0>
0=
0<
0;
0:
09
08
07
06
05
04
03
02
01
00
0/
0.
0-
0,
0+
0*
0)
0(
0'
0&
0%
0$
0#
0b
0a
0`
0_
0^
0]
0\
0[
0Z
0Y
0X
0W
0V
0U
0T
0S
0R
0Q
0P
0O
0N
0M
0L
0K
0J
0I
0H
0G
0F
0E
0D
0C
0g
0f
0e
0d
0m
0l
0k
0j
$end
#5
1!
1p
#7
0"
0o
#10
0!
0p
#15
1!
1p
1A
1@
1?
1>
1<
1;
1:
19
18
16
13
10
1.
1*
1)
1(
1'
1&
1$
1Z
1Y
1R
1I
1f
1e
#20
0!
0p
b1000 n
b1zzzzzzzzzzzzzzzzzzzzzzzz i
b10010111zzzzzzzzzzzzzzzzzzzzzzzz h
b1010 n
b1zzzzzzzz00000010zzzzzzzz i
b10010111zzzzzzzz00010100zzzzzzzz h
1l
1j
#25
1!
1p
1g
0e
1d
0R
1Q
1J
0I
1B
0@
0<
0;
15
14
03
12
11
1/
0.
0*
0(
0&
1%
1#
#30
0!
0p
b1000 n
b0 n
b1 n
b1zzzzzzzz0000001000000000 i
b10010111zzzzzzzz0001010000011011 h
b1001 n
b1110111zzzzzzzz0001010000011011 h
b1011 n
b1zzzzzzzz0000001100000000 i
b1110111zzzzzzzz1110101000011011 h
1m
#32
1"
1o
bz h
bz i
b0 n
#35
1!
1p
0A
0>
1=
1<
0:
17
0/
1+
1*
0)
1&
0%
0$
0Z
1R
0Q
1I
0g
0f
1e
0d
#37
0"
0o
#40
0!
0p
b10 n
bz00000010zzzzzzzz i
bz10000111zzzzzzzz h
0m
0j
#45
1!
1p
1g
0e
1d
1a
1Z
0Y
1Q
0J
0I
0B
0?
0<
1;
1:
09
08
05
13
01
1/
1.
1-
1,
1(
0&
#50
0!
0p
b0 n
b100 n
bz0000000000000010zzzzzzzz i
bz1010000010000111zzzzzzzz h
b101 n
bz000000000000001000000011 i
bz101000001000011110001101 h
1m
0l
1k
#55
1!
1p
1B
1@
1?
1>
0=
0:
19
06
15
04
11
00
0/
0.
0-
0,
0+
0(
1&
1%
1$
1b
0Z
1Y
0Q
1f
#60
0!
0p
b100 n
b0 n
b1000 n
b1000000011 i
b10011101101000001000011110001101 h
b1100 n
b10000001000000011 i
b10011101101010101000011110001101 h
b1101 n
b10011101101010101000011111111001 h
1j
#65
1!
1p
0f
0d
1A
0?
1=
0;
09
07
16
14
1-
0'
0%
#70
0!
0p
b1100 n
b1000 n
b0 n
b1000 n
b110111101010101000011111111001 h
0m
0k
#75
1!
1p
0B
0>
0=
1;
17
06
05
1/
1+
0*
1(
1'
0&
1%
0$
0g
1f
1e
1d
0a
1Q
#80
0!
0p
b0 n
b100 n
b110111110010001000011111111001 h
b1100 n
b10000000010000001000000011 i
b10101011110010001000011111111001 h
b1101 n
b10101011110010001000011110101100 h
1m
1k
#85
1!
1p
0b
1a
1Z
0Y
1g
0f
0e
0d
1?
1:
19
07
04
03
02
01
0-
1,
1*
1)
0'
1&
1$
0#
#90
0!
0p
b1100 n
b1000 n
b0 n
b100 n
b10000000000000001000000011 i
b10101011100011101000011110101100 h
0m
0j
#95
1!
1p
1B
0@
0?
0;
09
18
13
11
10
0/
1-
0,
0+
0*
0)
0&
0%
0$
1#
0g
1f
1e
1d
1b
0a
1Y
0R
#100
0!
0p
b0 n
b1000 n
b1000000000000001000000011 i
b10000101100011101000011110101100 h
b1100 n
b1000000100000001000000011 i
b10000101001001101000011110101100 h
b1101 n
b10000101001001101000011110000100 h
1m
1j
#105
1!
1p
1a
0Z
0Y
1R
0Q
1I
0f
0B
1?
1>
0:
16
15
01
00
1/
1,
1+
1*
1)
1&
1$
#110
0!
0p
b1100 n
b1000 n
b0 n
b10 n
b10000101001001101110100010000100 h
b110 n
b1000000110000001000000011 i
b10000101110101111110100010000100 h
0m
1l
0j
#115
1!
1p
0A
0?
1=
19
08
17
05
1.
0,
0*
0)
1'
0$
0#
0d
0a
1Y
0R
1J
#120
0!
0p
b100 n
b0 n
b1 n
b1000000110000001000000010 i
b10000101110101111110100010111000 h
1m
0l
0k
#125
1!
1p
0b
1Z
1Q
0I
1d
1A
1?
1<
1:
07
14
11
1*
1)
0(
0&
1%
1$
#130
0!
0p
b0 n
b100 n
b1000000100000001000000010 i
b10000101101110101110100010111000 h
b110 n
b1000000100000001100000010 i
b10000101101110100110101110111000 h
0m
1l
1k
#135
1!
1p
1@
0:
18
17
04
03
10
0/
0.
1,
0+
0*
1(
1&
0$
1f
1b
1a
0Z
0Q
#140
0!
0p
b100 n
b0 n
b100 n
b1000000010000001100000010 i
b10000101000111100110101110111000 h
b101 n
b10000101000111100110101101100110 h
b111 n
b10000101000111100011111001100110 h
1m
#145
1!
1p
0a
1R
1Q
0J
0f
0=
0<
06
14
12
01
00
1/
1.
0-
0,
0)
0(
0&
1$
1#
#150
0!
0p
b110 n
b100 n
b0 n
b1000 n
b10000000010000001100000010 i
b11001000111100011111001100110 h
b1001 n
b10000000010000001100000011 i
b11001000111100011111011101000 h
0l
0k
1j
#155
1!
1p
1B
0@
1;
1:
09
08
15
13
11
10
0/
0.
1-
1,
1*
0$
0#
1f
0e
0b
1J
#160
0!
0p
b1000 n
b0 n
b100 n
b11001111010010011111011101000 h
b110 n
b11001111010010010100111101000 h
0m
1l
1k
0j
#165
1!
1p
1b
1a
0Y
0R
1e
0d
1<
0;
03
01
00
1+
0*
1(
1&
1$
#170
0!
0p
b100 n
b0 n
b1 n
b10000000010000001100000001 i
b11001111010010010100101101001 h
b101 n
b10000000100000001100000001 i
b11001111000010010100101101001 h
1m
0l
#175
1!
1p
0?
1=
1;
0:
07
16
13
11
10
1/
0-
1*
1)
0'
0$
0e
1d
1Z
0J
#180
0!
0p
b100 n
b0 n
b10 n
b10000000100000000100000001 i
b11001111000011111000001101001 h
b11 n
b10000000100000000100000011 i
b11001111000011111000000110111 h
1l
0k
#185
1!
1p
0Q
1I
1e
0B
0A
1?
0=
1:
19
18
03
0,
0+
0)
0(
1'
0&
0%
1$
#190
0!
0p
b10 n
b0 n
b10 n
b11001111000010111011100110111 h
b11 n
b10000000100000000100000010 i
b11001111000010111011100001111 h
b111 n
b10000000110000000100000010 i
b11001010010010111011100001111 h
1k
#195
1!
1p
1A
1@
0>
1=
0;
08
06
05
04
02
1-
1+
1(
1&
0$
0f
0b
1R
1Q
0I
#200
0!
0p
b110 n
b100 n
b0 n
b1000 n
b10101110010010010111011100001111 h
b1001 n
b10000000110000000100000011 i
b10101110010010010111011100011101 h
0l
0k
1j
#205
1!
1p
0a
0Z
1Y
1J
1g
1f
0A
0@
0=
0<
18
17
15
00
0-
0+
0(
0&
1%
1$
1#
#210
0!
0p
b1000 n
b0 n
b1 n
b10000000110000000100000000 i
b10101110010010010111011100001000 h
b101 n
b10000000010000000100000000 i
b10101110001011110111011100001000 h
b1101 n
b1010001011110111011100001000 h
b1111 n
b10000000010000001100000000 i
b1010001011111110100100001000 h
1l
1k
#215
1!
1p
1A
1>
1=
1<
1;
0:
05
14
12
0/
1.
1-
1+
0*
1(
0%
0$
0g
0d
1b
1a
1Z
0Y
0R
0Q
0J
1I
#220
0!
0p
b1110 n
b1100 n
b1000 n
b0 n
b10 n
b10000000010000000100000000 i
b1010001011110100111000001000 h
b11 n
b10000000010000000100000010 i
b1010001011110100111010110011 h
0k
0j
#225
1!
1p
0b
0a
0Z
1Y
1R
1J
1@
0?
0<
09
08
16
04
01
10
1/
0.
1)
0(
1&
1%
1$
0#
#230
0!
0p
b10 n
b0 n
b100 n
b1010000110000100111010110011 h
b110 n
b10000000010000001000000010 i
b1010000110001010110110110011 h
0m
1k
#235
1!
1p
1B
0A
1?
1<
1:
14
11
0/
0-
1,
0+
0'
0&
0$
1#
1b
1Z
0R
1Q
0J
0I
1d
#240
0!
0p
b100 n
b0 n
b1000 n
b1000000010000001000000010 i
b1011001000110001010110110110011 h
b1100 n
b1000000100000001000000010 i
b1011001010001111010110110110011 h
b1101 n
b1000000100000001000000011 i
b1011001010001111010110110100010 h
1m
0l
1j
#245
1!
1p
0f
0d
1a
0Z
0Y
1J
0B
0@
0?
0>
0=
0<
0:
07
04
02
1-
1*
0)
1(
1&
1$
#250
0!
0p
b1100 n
b1000 n
b0 n
b100 n
b1011001011001101010110110100010 h
0m
0j
#255
1!
1p
1B
1A
1?
1>
1=
0;
1:
18
17
14
13
00
1/
0-
1+
0*
0(
1'
1R
0Q
0J
1I
0e
1d
#260
0!
0p
b0 n
b100 n
b1000000110000001000000011 i
b1011001111110001010110110100010 h
#265
1!
1p
1e
0d
0b
0a
1Z
0R
1Q
1J
0B
1<
1;
0:
12
01
1.
1-
0+
1*
1(
0&
0%
0$
0#
#270
0!
0p
b0 n
b100 n
b1000000100000001000000011 i
b1011001011110011010110110100010 h
#275
1!
1p
0A
1@
1:
08
06
15
10
0/
0.
1+
1)
1$
1b
1a
0Z
1R
0Q
0J
1f
1d
#280
0!
0p
b0 n
b1 n
b1000000100000001000000001 i
b1011001011110011010110111101001 h
b11 n
b1011001011110011110010111101001 h
b111 n
b1000000110000001000000001 i
b1011001010011111110010111101001 h
1m
1l
#285
1!
1p
1g
0f
0d
1Z
0R
1A
0?
0>
0<
0:
16
04
00
1/
1.
0,
0+
0*
0)
0(
0'
1&
0$
1#
#290
0!
0p
b110 n
b100 n
b0 n
b1000 n
b110000001000000001 i
b10100110010011111110010111101001 h
b1001 n
b110000001000000010 i
b10100110010011111110010100111001 h
0l
0k
1j
#295
1!
1p
1B
0A
1>
0=
0;
1:
07
05
14
11
0.
0-
1*
1%
0a
0Z
1Y
1R
1Q
0I
0g
1f
#300
0!
0p
b1000 n
b0 n
b100 n
b10000001000000010 i
b10100110110100011110010100111001 h
b1100 n
b10000000010000001000000010 i
b1011110100011110010100111001 h
0m
1k
#305
1!
1p
0e
1a
0R
0Q
1J
1=
1<
19
18
17
06
15
04
03
02
01
10
1-
1,
0*
1)
1'
0&
1$
0#
#310
0!
0p
b1000 n
b0 n
b100 n
b1011001011111110010100111001 h
0j
#315
1!
1p
0B
1A
0@
1?
0<
07
16
0-
0,
1+
1*
1(
0'
0%
0$
1#
1Z
0Y
0J
1I
1g
#320
0!
0p
b0 n
b1000 n
b10000001000000010 i
b111010001011111110010100111001 h
b1010 n
b10000000100000010 i
b111010001011110011011100111001 h
1l
0k
1j
#325
1!
1p
0g
1e
1d
0a
0Z
1R
1Q
0>
0=
1<
09
17
06
05
14
11
1.
1-
0+
0*
0)
1'
1&
0#
#330
0!
0p
b1000 n
b0 n
b1 n
b10000000100000001 i
b111010001011110011011101001101 h
b1001 n
b10000000010000000100000001 i
b111110001011110011011101001101 h
b1101 n
b10000000110000000100000001 i
b111110000111000011011101001101 h
1m
0l
1k
#335
1!
1p
1B
0A
1>
1;
0:
07
16
04
12
00
0/
0.
1,
1+
0(
0&
1$
1Y
0R
0Q
1J
0f
0d
#340
0!
0p
b1100 n
b1000 n
b0 n
b1 n
b10000000110000000100000010 i
b111110000111000011011111100011 h
0k
0j
#345
1!
1p
1g
1f
0e
0b
1a
0Y
1R
0B
1@
0>
0;
1:
19
08
17
01
10
1.
0,
0+
1)
0'
0$
1#
#350
0!
0p
b0 n
b100 n
b10000000000000000100000010 i
b111110010011000011011111100011 h
b101 n
b10000000000000000100000001 i
b111110010011000011011100011011 h
1k
#355
1!
1p
0@
0?
1>
1;
09
06
13
00
1/
0.
1,
1*
0)
1'
1&
1%
0#
0a
1Z
1Y
0J
0f
#360
0!
0p
b100 n
b0 n
b1 n
b10000000000000000100000000 i
b111110010011000011011111010000 h
0k
#365
1!
1p
1b
0R
1A
0>
0<
0;
0:
18
16
10
1.
0-
0,
0*
0'
0&
1$
1#
#370
0!
0p
b0 n
b10 n
b10000000000000000000000000 i
b111110010011000000001011010000 h
0m
1l
#375
1!
1p
0A
1@
1?
1:
08
07
02
00
0.
1)
1'
0%
0#
1Q
0I
1d
#380
0!
0p
b0 n
b10 n
b111110010011000000110011010000 h
b11 n
b10000000000000000000000011 i
b111110010011000000110001001010 h
1m
#385
1!
1p
0g
0d
0Q
1I
1B
0@
0?
1>
0:
19
18
11
10
0/
1-
1+
0)
1(
0'
1&
0$
#390
0!
0p
b10 n
b0 n
0m
0l
#395
1!
1p
0B
1@
1?
0>
1<
1;
09
14
03
12
01
1.
0+
1)
1'
1%
0b
1Q
1J
0I
1g
1d
#400
0!
0p
b1 n
b10000000000000000000000000 i
b111110010011000000110011001100 h
b11 n
b10000000000000001100000000 i
b111110010011000011111011001100 h
1m
1l
#405
1!
1p
0g
1e
1b
1a
0Y
0Q
0J
1I
1B
0@
1>
1=
0;
1:
08
06
13
02
11
0.
1,
0)
0'
1$
1#
#410
0!
0p
b10 n
b0 n
b1 n
b10000000000000001100000010 i
b111110010011000011111001100110 h
b101 n
b10000000110000001100000010 i
b111110111101000011111001100110 h
0l
1k
#415
1!
1p
1@
0>
0<
1;
15
03
1/
0-
0,
1*
1)
0(
1'
0&
0$
0Z
1Y
1R
0I
1f
0e
#420
0!
0p
b100 n
b0 n
b100 n
b10000000010000001100000010 i
b111110011000010011111001100110 h
b101 n
b10000000010000001100000011 i
b111110011000010011111010101011 h
#425
1!
1p
1g
0f
0b
0Y
1Q
1J
0@
0?
0=
1<
16
04
13
1.
1-
1,
1&
1$
0#
#430
0!
0p
b100 n
b0 n
b100 n
b10000000000000001100000011 i
b111110110000010011111010101011 h
b110 n
b111110110000010111101110101011 h
0m
1l
#435
1!
1p
0B
1A
1@
1?
1>
1=
0;
18
05
14
03
00
0/
0-
0*
1(
0'
0%
0$
0a
1Z
0R
1I
#440
0!
0p
b100 n
b0 n
b1 n
b10000000000000001100000000 i
b111110110000010111101101111110 h
b1001 n
b11000000000000001100000000 i
b10110110000010111101101111110 h
1m
0l
0k
1j
#445
1!
1p
1a
0Q
1B
0<
1;
19
08
15
04
01
1/
0.
1-
0,
1+
1$
0g
1f
0d
#450
0!
0p
b1000 n
b0 n
b10 n
b11000000000000000100000000 i
b10110110000010011001101111110 h
0m
1l
0j
#455
1!
1p
1e
1d
0B
0A
0>
0=
1<
0;
09
18
06
05
14
11
10
1.
1*
0)
1'
1b
0a
1Y
1Q
0J
0I
#460
0!
0p
b0 n
b1000 n
b1000000000000000100000000 i
b1000101110000010011001101111110 h
b1100 n
b1000000100000000100000000 i
b1000101101111100011001101111110 h
b1101 n
b1000000100000000100000011 i
b1000101101111100011001101011101 h
1m
0l
1k
1j
#465
1!
1p
0b
1J
1A
1>
0<
0:
19
12
01
00
0-
0+
1)
0'
0&
1%
0$
1g
0d
#470
0!
0p
b1100 n
b1000 n
b0 n
b1 n
b1000000100000000100000000 i
b1000101101111100011001100011110 h
b1001 n
b1000110101111100011001100011110 h
b1101 n
b1000110000110010011001100011110 h
#475
1!
1p
0g
0f
1d
0@
0?
1;
1:
09
02
11
0/
1+
0%
1b
1a
0Z
0Q
#480
0!
0p
b1100 n
b1000 n
b0 n
b1 n
b1000000100000000100000010 i
b1000110000110010011001110010010 h
b11 n
b1000000100000001100000010 i
b1000110000110010000011110010010 h
1l
0k
0j
#485
1!
1p
0b
0Y
1R
1I
1B
1?
1=
1<
19
17
16
15
12
01
0.
1,
0*
0(
1&
1%
1#
1g
0e
#490
0!
0p
b10 n
b0 n
b100 n
b1000000000000001100000010 i
b1000110111110110000011110010010 h
b1100 n
b11000000000000001100000010 i
b10110010111110110000011110010010 h
0m
0l
1k
1j
#495
1!
1p
1f
1e
0d
0B
0A
1@
0?
0>
0<
09
08
05
02
11
10
1/
1-
0,
0+
1(
1'
0&
0%
1$
0#
1Z
1Y
0R
0I
#500
0!
0p
b1000 n
b0 n
b100 n
b10110010101001000000011110010010 h
b1100 n
b1000000000000001100000010 i
b1011001101001000000011110010010 h
b1101 n
b1011001101001000000011100101110 h
1m
#505
1!
1p
0a
1Q
1B
0@
1>
0=
1<
0:
19
07
04
12
01
00
1.
0-
1+
0)
0'
1&
1%
0$
0e
#510
0!
0p
b1100 n
b1000 n
b0 n
b1 n
b1000000000000001100000000 i
b1011001101001000000011111010001 h
b1001 n
b10010101001000000011111010001 h
0k
#515
1!
1p
0g
1e
0B
1A
1@
1?
0>
0<
0;
09
17
13
02
10
0/
0.
1,
0(
1'
1#
0Y
1R
0J
1I
#520
0!
0p
b1000 n
b0 n
b10 n
b1000000000000000100000000 i
b10010101001001001100011010001 h
b1010 n
b10000000000000000100000000 i
b11000100101001001001100011010001 h
0m
1l
#525
1!
1p
1Y
0R
1J
0I
0A
0@
0?
1>
1;
1:
15
14
11
1/
1.
1-
0,
1)
1(
0&
1$
0#
1g
0f
#530
0!
0p
b1000 n
b0 n
b1 n
b11000100101001001001100010010000 h
b101 n
b10000000100000000100000000 i
b11000100101111101001100010010000 h
1m
0l
1k
0j
#535
1!
1p
0g
1d
1A
1@
0:
07
12
00
0-
1,
0+
1*
0'
0%
1a
0Y
0Q
1I
#540
0!
0p
b100 n
b0 n
b1 n
b10000000100000000100000010 i
b11000100101111101001100001011011 h
b1001 n
b11000000100000000100000010 i
b1000111101111101001100001011011 h
0k
1j
#545
1!
1p
1b
0Z
1Q
0I
0A
0>
1=
1:
17
06
04
03
0/
0.
1-
0)
1'
0e
0d
#550
0!
0p
b1000 n
b0 n
0m
0j
#555
1!
1p
1g
1f
1d
0@
1?
1>
1<
0:
19
18
14
13
01
1/
1+
0'
1%
0$
1#
0a
1R
0J
1I
#560
0!
0p
b10 n
b11000000100000000000000010 i
b1000111101111101111100001011011 h
b11 n
b11000000100000000000000001 i
b1000111101111101111100011101110 h
b111 n
b11000000110000000000000001 i
b1000111101001011111100011101110 h
1m
1l
1k
#565
1!
1p
0b
1a
1Z
1Y
0R
0Q
1J
0I
1B
1@
0=
0<
0;
09
07
04
03
10
0*
1'
1&
1$
#570
0!
0p
b110 n
b100 n
b0 n
b100 n
b11000000000000000000000001 i
b1000111000111011111100011101110 h
b1100 n
b1000000000000000000000001 i
b100100000111011111100011101110 h
b1110 n
b1000000000000001100000001 i
b100100000111011111110011101110 h
0m
1j
#575
1!
1p
0B
0@
0?
1;
1:
19
08
14
13
11
0/
1*
0(
0&
0#
1b
0Y
0J
1I
0f
#580
0!
0p
b1100 n
b1000 n
b0 n
b1000 n
b1100000001 i
b10010000000111011111110011101110 h
b1100 n
b110000001100000001 i
b10010000011010011111110011101110 h
0l
#585
1!
1p
0g
1f
1e
0d
0a
0Z
1Q
1J
1?
1=
1<
18
03
01
00
1.
1(
0'
1&
0%
0$
1#
#590
0!
0p
b1000 n
b0 n
b1 n
b10010000011010011111110001100111 h
b101 n
b100000001100000001 i
b10010000111100011111110001100111 h
1m
0j
#595
1!
1p
0?
0<
0;
0:
09
17
16
05
13
02
10
1/
1)
0(
1%
0b
1a
1R
0I
1g
1d
#600
0!
0p
b100 n
b0 n
b100 n
b1100000001 i
b10010000001100001111110001100111 h
b101 n
b10010000001100001111110011011100 h
b1101 n
b10000000000000001100000001 i
b11111100001100001111110011011100 h
b1111 n
b11111100001100001011001111011100 h
1l
1j
#605
1!
1p
0g
0d
1Z
1Y
0Q
0J
1B
1@
0=
1<
06
15
03
12
00
0*
0%
0#
#610
0!
0p
b1110 n
b1100 n
b1000 n
b0 n
b1000 n
b1000000000000001100000001 i
b1101100001100001011001111011100 h
b1010 n
b1000000000000001000000001 i
b1101100001100001111100111011100 h
0m
0k
#615
1!
1p
0B
0@
0>
1=
0<
1;
1:
05
04
02
0/
0-
0)
1(
0&
1%
1#
1b
0Z
0Y
0R
1Q
1J
0e
#620
0!
0p
b1000 n
b0 n
b1 n
b1101100001100001111100100001101 h
1m
0l
0j
#625
1!
1p
1g
1B
1@
1?
0=
1<
0;
19
08
16
15
14
11
10
1-
0,
0+
1&
1$
#630
0!
0p
b0 n
b1000 n
b1000000001 i
b1001101001100001111100100001101 h
b1001 n
b1001101001100001111100101111011 h
1j
#635
1!
1p
0?
1=
0:
09
18
07
06
05
00
1/
1*
0(
0%
0#
1e
0b
0a
1Z
1Y
#640
0!
0p
b1000 n
b0 n
b1 n
b1000000000 i
b1001101001100001111100101100101 h
b1001 n
b1000000000000001000000000 i
b1000100001100001111100101100101 h
b1101 n
b1000000100000001000000000 i
b1000100001110101111100101100101 h
1k
#645
1!
1p
0e
0B
1A
0@
1?
1>
0=
1;
17
04
13
12
0/
0.
1,
1+
0*
1)
1(
#650
0!
0p
b1100 n
b1000 n
b0 n
b1 n
b1000100001110101111100111011010 h
b1001 n
b10001100001110101111100111011010 h
0k
#655
1!
1p
1B
0A
1@
0?
0>
1=
0<
0;
19
07
15
03
02
1/
0,
0+
1%
1#
0g
0f
1d
1b
0Z
0Y
1I
#660
0!
0p
b1000 n
b0 n
b1000 n
b11000000100000001000000000 i
b11110110001110101111100111011010 h
0m
#665
1!
1p
0b
1Z
1Y
1R
0Q
0J
1f
1e
0B
0@
0=
1<
1;
16
14
13
12
10
0/
1+
1*
0)
0(
1'
0&
0#
#670
0!
0p
b0 n
b1000 n
b1000000100000001000000000 i
b1010 n
b11110110001110101010011111011010 h
b1110 n
b1000000110000001000000000 i
b11110110011010011010011111011010 h
1l
1k
#675
1!
1p
1B
1@
1>
1=
0;
1:
09
08
06
04
03
01
0*
1)
1&
0$
0d
1b
0R
#680
0!
0p
b1100 n
b1000 n
b0 n
b1000 n
b100001011010011010011111011010 h
b1001 n
b1000000110000001000000010 i
b100001011010011010011110100101 h
1m
0l
0k
#685
1!
1p
0b
1a
0Z
0Y
1R
1J
0f
1A
1?
0>
0=
19
17
14
13
02
00
1/
1.
0-
1*
1(
0&
#690
0!
0p
b1000 n
b0 n
b10 n
b100001011010011001100010100101 h
0m
1l
0j
#695
1!
1p
0B
0@
0?
1=
07
05
04
03
10
0.
1-
0)
0(
1&
1#
1g
1d
1b
0a
1Y
1Q
0J
0I
#700
0!
0p
b0 n
b10 n
b1000000110000000000000010 i
b100001011010010110001010100101 h
b1010 n
b10000000110000000000000010 i
b10101100011010010110001010100101 h
b1011 n
b10000000110000000000000011 i
b10101100011010010110001010111001 h
1m
1j
#705
1!
1p
1a
1Z
0Y
0R
0g
1f
0d
0A
1?
0=
0<
0:
18
17
16
15
14
12
11
00
0/
0-
0+
0*
1)
0'
1$
#710
0!
0p
b1010 n
b1000 n
b0 n
b10 n
b10000000110000000100000011 i
b10101100011010010111111010111001 h
b110 n
b10000000100000000100000011 i
b10101100000000110111111010111001 h
0m
1k
0j
#715
1!
1p
1>
1:
09
08
06
05
04
02
1-
1,
1*
1(
0$
1g
0f
1d
0b
1Y
0Q
1J
#720
0!
0p
b100 n
b0 n
b100 n
b10000000000000000100000011 i
b10101100000110000111111010111001 h
b101 n
b10000000000000000100000010 i
b10101100000110000111111001100010 h
b111 n
b10000000000000001100000010 i
b10101100000110001011011101100010 h
1m
#725
1!
1p
1b
0Z
0g
1f
0e
1B
1A
1@
0?
0>
0:
19
15
14
13
01
10
1/
1.
0-
0,
0*
1'
0&
0#
#730
0!
0p
b110 n
b100 n
b0 n
b100 n
b10000000010000001100000010 i
b10101100111010101011011101100010 h
b110 n
b10101100111010100010111001100010 h
0m
#735
1!
1p
0@
1?
1=
1<
1;
18
05
03
11
0/
0.
1+
1*
0'
1&
0f
1e
0d
0a
1Z
0J
1I
#740
0!
0p
b100 n
b0 n
b1 n
b10101100111010100010111010000110 h
1m
0l
0k
#745
1!
1p
0b
1a
1R
0I
0e
0?
1>
0=
16
04
12
00
1/
1.
1-
1,
0+
0*
0)
0(
0&
0%
1$
#750
0!
0p
b0 n
0m
#755
1!
1p
0B
0>
0<
06
15
02
01
10
0/
0.
0,
1+
1*
1(
0$
1e
1b
0Z
0Y
1I
#760
0!
0p
b10 n
b10000000010000001000000010 i
b10101100111010101010010010000110 h
1l
#765
1!
1p
0a
1Y
1Q
0I
1d
1B
0A
1=
1:
12
1/
0-
0+
0*
1)
0(
1'
1%
1#
#770
0!
0p
b0 n
b1000 n
b1101111010101010010010000110 h
b1001 n
b10000000010000001000000011 i
b1101111010101010010010101010 h
1m
0l
1j
#775
1!
1p
0B
1A
1@
1?
1>
14
13
1,
1*
0'
1&
0#
1f
0e
1a
0Y
0Q
1I
#780
0!
0p
b1000 n
b0 n
b1 n
b10000000010000001000000001 i
b1101111010101010010011101111 h
b101 n
b10000000110000001000000001 i
b1101001100111010010011101111 h
1k
0j
#785
1!
1p
0b
1Z
1Q
0I
1g
1e
0d
0A
0@
0?
0>
08
07
16
05
04
1-
0,
1+
0*
0&
0%
1#
#790
0!
0p
b100 n
b0 n
b100 n
b10000000000000001000000001 i
b1101101000001010010011101111 h
b110 n
b10000000000000000100000001 i
b1101101000001001001111101111 h
b1110 n
b10101101101000001001001111101111 h
0m
1l
1j
#795
1!
1p
1B
1A
1?
1>
1<
0;
09
17
15
11
0/
0-
1&
0#
0f
1d
0R
0Q
1J
1I
